Workshop Data Simulation with Monte Carlo Methods - 4a) Errors and power — Torturing the t-test
…
set.seed(689)
i = 10000 # number of sim runs per condition
tic() # simple way to measure wall time
sims = map_dfr(1:i, ~ conditions) %>% # each condition i times
  rowid_to_column(var = "sim") %>% # within simulation comparison
  rowwise() %>%
  mutate(p.value = list(sim_ttest(GR = GR, SDR = SDR))) %>% 
  unnest_longer(p.value, indices_to = "method")
toc() # simple way to measure wall time

14.949 sec elapsed

Inspect simulated data

# A tibble: 120,000 × 6
     sim condition    GR   SDR p.value method 
   <int>     <int> <dbl> <dbl>   <dbl> <chr>  
 1     1         1     1   0.5 0.345   Welch  
 2     1         1     1   0.5 0.344   Student
 3     2         2     1   1   0.534   Welch  
 4     2         2     1   1   0.534   Student
 5     3         3     1   2   0.647   Welch  
 6     3         3     1   2   0.647   Student
 7     4         4     2   0.5 0.00985 Welch  
 8     4         4     2   0.5 0.00224 Student
 9     5         5     2   1   0.602   Welch  
10     5         5     2   1   0.614   Student
# … with 119,990 more rows
# ℹ Use `print(n = ...)` to see more rows
…
