4b) Errors and power — Torturing the t-test
…
Calculator: Adapt the experimental conditions

Option 1: more fine-grained factor n

conditions = expand_grid(GR = 1, 
                         SDR = 1,
                         n = seq(from = 50, to = 500, by = 10),
                         M_diff = 0.4) %>% 
  rowid_to_column(var = "condition")
i = 250
conditions = map_dfr(1:i, ~ conditions) %>%
  rowid_to_column(var = "sim")
conditions

# A tibble: 11,500 × 6
     sim condition    GR   SDR     n M_diff
   <int>     <int> <dbl> <dbl> <dbl>  <dbl>
 1     1         1     1     1    50    0.4
 2     2         2     1     1    60    0.4
 3     3         3     1     1    70    0.4
 4     4         4     1     1    80    0.4
 5     5         5     1     1    90    0.4
 6     6         6     1     1   100    0.4
 7     7         7     1     1   110    0.4
 8     8         8     1     1   120    0.4
 9     9         9     1     1   130    0.4
10    10        10     1     1   140    0.4
# … with 11,490 more rows
# ℹ Use `print(n = ...)` to see more rows

Option 2: many random draws of n from a distribution

i = 250*46 # same total number of simulations
set.seed(86)
conditions = tibble(sim = 1:i,
                    GR = 1, 
                    SDR = 1,
                    n = sample(x = 50:500, size = i, replace = TRUE),
                    M_diff = 0.4)
conditions

# A tibble: 11,500 × 5
     sim    GR   SDR     n M_diff
   <int> <dbl> <dbl> <int>  <dbl>
 1     1     1     1   244    0.4
 2     2     1     1   462    0.4
 3     3     1     1   306    0.4
 4     4     1     1    78    0.4
 5     5     1     1   285    0.4
 6     6     1     1   396    0.4
 7     7     1     1   419    0.4
 8     8     1     1   392    0.4
 9     9     1     1   226    0.4
10    10     1     1   278    0.4
# … with 11,490 more rows
# ℹ Use `print(n = ...)` to see more rows
…
