5) Misclassification and bias — Messages mismeasured
…
i (number of simulations) and set.seed() required for building conditions.

i = 5000
set.seed(39)
conditions = expand_grid(
  n = 1000,
  accuracy = seq(from = 0.4, to = 1, by = 0.2)
  ) %>% 
  rowid_to_column(var = "condition")
conditions = map_dfr(1:i, ~ conditions) %>%
  rowid_to_column(var = "sim") %>%
  mutate(pop_dist = split(rdirichlet(nrow(.), c(1,1,1,1)), 1:nrow(.)))
conditions

# A tibble: 20,000 × 5
     sim condition     n accuracy pop_dist    
   <int>     <int> <dbl>    <dbl> <named list>
 1     1         1  1000      0.4 <dbl [4]>   
 2     2         2  1000      0.6 <dbl [4]>   
 3     3         3  1000      0.8 <dbl [4]>   
 4     4         4  1000      1   <dbl [4]>   
 5     5         1  1000      0.4 <dbl [4]>   
 6     6         2  1000      0.6 <dbl [4]>   
 7     7         3  1000      0.8 <dbl [4]>   
 8     8         4  1000      1   <dbl [4]>   
 9     9         1  1000      0.4 <dbl [4]>   
10    10         2  1000      0.6 <dbl [4]>   
# … with 19,990 more rows
# ℹ Use `print(n = ...)` to see more rows
…
